…
- 0 = No neuromuscular blockade on Day 0 or missing
- 1 = Neuromuscular blockade given on Day 0

### Code to Generate Variable

``` r
data |>
  filter(event_label == 'Daily In-Hospital Forms') |>
  mutate(str_nmblockade_0 = calc_str_nmblockade_0(
    daily_paralysis_0 = daily_paralysis_0,
    trx_0 = trx_0
  )) |>
  select(str_nmblockade_0)
#> # A tibble: 499 × 1
#>    str_nmblockade_0
#>               <dbl>
#>  1                0
#>  2                0
#>  3                0
#>  4                0
#>  5                0
#>  6                0
#>  7                0
#>  8                0
#>  9                0
#> 10                0
#> # ℹ 489 more rows
```
…
